(['C:\\Users\\janio\\Desktop\\TimeSpentInSC\\main.py'],
 ['C:\\Users\\janio\\Desktop\\TimeSpentInSC'],
 ['codecs'],
 ['c:\\users\\janio\\pycharmprojects\\pythonproject2\\venv\\lib\\site-packages\\_pyinstaller_hooks_contrib\\hooks\\stdhooks',
  'c:\\users\\janio\\pycharmprojects\\pythonproject2\\venv\\lib\\site-packages\\_pyinstaller_hooks_contrib\\hooks\\stdhooks\\__pycache__',
  'c:\\users\\janio\\pycharmprojects\\pythonproject2\\venv\\lib\\site-packages\\_pyinstaller_hooks_contrib\\hooks\\rthooks',
  'c:\\users\\janio\\pycharmprojects\\pythonproject2\\venv\\lib\\site-packages\\_pyinstaller_hooks_contrib\\hooks\\rthooks\\__pycache__',
  'c:\\users\\janio\\pycharmprojects\\pythonproject2\\venv\\lib\\site-packages\\_pyinstaller_hooks_contrib\\hooks'],
 {},
 [],
 [],
 False,
 False,
 False,
 '3.8.7 (tags/v3.8.7:6503f05, Dec 21 2020, 17:59:51) [MSC v.1928 64 bit '
 '(AMD64)]',
 [('pyi_rth_subprocess',
   'C:\\Users\\janio\\PycharmProjects\\pythonProject2\\venv\\Lib\\site-packages\\PyInstaller\\hooks\\rthooks\\pyi_rth_subprocess.py',
   'PYSOURCE'),
  ('main', 'C:\\Users\\janio\\Desktop\\TimeSpentInSC\\main.py', 'PYSOURCE')],
 [('subprocess',
   'C:\\Users\\janio\\AppData\\Local\\Programs\\Python\\Python38\\lib\\subprocess.py',
   'PYMODULE'),
  ('selectors',
   'C:\\Users\\janio\\AppData\\Local\\Programs\\Python\\Python38\\lib\\selectors.py',
   'PYMODULE'),
  ('contextlib',
   'C:\\Users\\janio\\AppData\\Local\\Programs\\Python\\Python38\\lib\\contextlib.py',
   'PYMODULE'),
  ('threading',
   'C:\\Users\\janio\\AppData\\Local\\Programs\\Python\\Python38\\lib\\threading.py',
   'PYMODULE'),
  ('_threading_local',
   'C:\\Users\\janio\\AppData\\Local\\Programs\\Python\\Python38\\lib\\_threading_local.py',
   'PYMODULE'),
  ('signal',
   'C:\\Users\\janio\\AppData\\Local\\Programs\\Python\\Python38\\lib\\signal.py',
   'PYMODULE'),
  ('_strptime',
   'C:\\Users\\janio\\AppData\\Local\\Programs\\Python\\Python38\\lib\\_strptime.py',
   'PYMODULE'),
  ('calendar',
   'C:\\Users\\janio\\AppData\\Local\\Programs\\Python\\Python38\\lib\\calendar.py',
   'PYMODULE'),
  ('argparse',
   'C:\\Users\\janio\\AppData\\Local\\Programs\\Python\\Python38\\lib\\argparse.py',
   'PYMODULE'),
  ('textwrap',
   'C:\\Users\\janio\\AppData\\Local\\Programs\\Python\\Python38\\lib\\textwrap.py',
   'PYMODULE'),
  ('copy',
   'C:\\Users\\janio\\AppData\\Local\\Programs\\Python\\Python38\\lib\\copy.py',
   'PYMODULE'),
  ('gettext',
   'C:\\Users\\janio\\AppData\\Local\\Programs\\Python\\Python38\\lib\\gettext.py',
   'PYMODULE'),
  ('struct',
   'C:\\Users\\janio\\AppData\\Local\\Programs\\Python\\Python38\\lib\\struct.py',
   'PYMODULE'),
  ('shutil',
   'C:\\Users\\janio\\AppData\\Local\\Programs\\Python\\Python38\\lib\\shutil.py',
   'PYMODULE'),
  ('zipfile',
   'C:\\Users\\janio\\AppData\\Local\\Programs\\Python\\Python38\\lib\\zipfile.py',
   'PYMODULE'),
  ('py_compile',
   'C:\\Users\\janio\\AppData\\Local\\Programs\\Python\\Python38\\lib\\py_compile.py',
   'PYMODULE'),
  ('ntpath',
   'C:\\Users\\janio\\AppData\\Local\\Programs\\Python\\Python38\\lib\\ntpath.py',
   'PYMODULE'),
  ('string',
   'C:\\Users\\janio\\AppData\\Local\\Programs\\Python\\Python38\\lib\\string.py',
   'PYMODULE'),
  ('genericpath',
   'C:\\Users\\janio\\AppData\\Local\\Programs\\Python\\Python38\\lib\\genericpath.py',
   'PYMODULE'),
  ('importlib.machinery',
   'C:\\Users\\janio\\AppData\\Local\\Programs\\Python\\Python38\\lib\\importlib\\machinery.py',
   'PYMODULE'),
  ('importlib',
   'C:\\Users\\janio\\AppData\\Local\\Programs\\Python\\Python38\\lib\\importlib\\__init__.py',
   'PYMODULE'),
  ('importlib._bootstrap',
   'C:\\Users\\janio\\AppData\\Local\\Programs\\Python\\Python38\\lib\\importlib\\_bootstrap.py',
   'PYMODULE'),
  ('importlib._bootstrap_external',
   'C:\\Users\\janio\\AppData\\Local\\Programs\\Python\\Python38\\lib\\importlib\\_bootstrap_external.py',
   'PYMODULE'),
  ('importlib.metadata',
   'C:\\Users\\janio\\AppData\\Local\\Programs\\Python\\Python38\\lib\\importlib\\metadata.py',
   'PYMODULE'),
  ('importlib.abc',
   'C:\\Users\\janio\\AppData\\Local\\Programs\\Python\\Python38\\lib\\importlib\\abc.py',
   'PYMODULE'),
  ('configparser',
   'C:\\Users\\janio\\AppData\\Local\\Programs\\Python\\Python38\\lib\\configparser.py',
   'PYMODULE'),
  ('pathlib',
   'C:\\Users\\janio\\AppData\\Local\\Programs\\Python\\Python38\\lib\\pathlib.py',
   'PYMODULE'),
  ('urllib.parse',
   'C:\\Users\\janio\\AppData\\Local\\Programs\\Python\\Python38\\lib\\urllib\\parse.py',
   'PYMODULE'),
  ('urllib',
   'C:\\Users\\janio\\AppData\\Local\\Programs\\Python\\Python38\\lib\\urllib\\__init__.py',
   'PYMODULE'),
  ('email',
   'C:\\Users\\janio\\AppData\\Local\\Programs\\Python\\Python38\\lib\\email\\__init__.py',
   'PYMODULE'),
  ('email.parser',
   'C:\\Users\\janio\\AppData\\Local\\Programs\\Python\\Python38\\lib\\email\\parser.py',
   'PYMODULE'),
  ('email._policybase',
   'C:\\Users\\janio\\AppData\\Local\\Programs\\Python\\Python38\\lib\\email\\_policybase.py',
   'PYMODULE'),
  ('email.utils',
   'C:\\Users\\janio\\AppData\\Local\\Programs\\Python\\Python38\\lib\\email\\utils.py',
   'PYMODULE'),
  ('email._parseaddr',
   'C:\\Users\\janio\\AppData\\Local\\Programs\\Python\\Python38\\lib\\email\\_parseaddr.py',
   'PYMODULE'),
  ('socket',
   'C:\\Users\\janio\\AppData\\Local\\Programs\\Python\\Python38\\lib\\socket.py',
   'PYMODULE'),
  ('random',
   'C:\\Users\\janio\\AppData\\Local\\Programs\\Python\\Python38\\lib\\random.py',
   'PYMODULE'),
  ('hashlib',
   'C:\\Users\\janio\\AppData\\Local\\Programs\\Python\\Python38\\lib\\hashlib.py',
   'PYMODULE'),
  ('logging',
   'C:\\Users\\janio\\AppData\\Local\\Programs\\Python\\Python38\\lib\\logging\\__init__.py',
   'PYMODULE'),
  ('pickle',
   'C:\\Users\\janio\\AppData\\Local\\Programs\\Python\\Python38\\lib\\pickle.py',
   'PYMODULE'),
  ('pprint',
   'C:\\Users\\janio\\AppData\\Local\\Programs\\Python\\Python38\\lib\\pprint.py',
   'PYMODULE'),
  ('_compat_pickle',
   'C:\\Users\\janio\\AppData\\Local\\Programs\\Python\\Python38\\lib\\_compat_pickle.py',
   'PYMODULE'),
  ('bisect',
   'C:\\Users\\janio\\AppData\\Local\\Programs\\Python\\Python38\\lib\\bisect.py',
   'PYMODULE'),
  ('email.feedparser',
   'C:\\Users\\janio\\AppData\\Local\\Programs\\Python\\Python38\\lib\\email\\feedparser.py',
   'PYMODULE'),
  ('email.message',
   'C:\\Users\\janio\\AppData\\Local\\Programs\\Python\\Python38\\lib\\email\\message.py',
   'PYMODULE'),
  ('email.policy',
   'C:\\Users\\janio\\AppData\\Local\\Programs\\Python\\Python38\\lib\\email\\policy.py',
   'PYMODULE'),
  ('email.contentmanager',
   'C:\\Users\\janio\\AppData\\Local\\Programs\\Python\\Python38\\lib\\email\\contentmanager.py',
   'PYMODULE'),
  ('email.quoprimime',
   'C:\\Users\\janio\\AppData\\Local\\Programs\\Python\\Python38\\lib\\email\\quoprimime.py',
   'PYMODULE'),
  ('email.headerregistry',
   'C:\\Users\\janio\\AppData\\Local\\Programs\\Python\\Python38\\lib\\email\\headerregistry.py',
   'PYMODULE'),
  ('email.iterators',
   'C:\\Users\\janio\\AppData\\Local\\Programs\\Python\\Python38\\lib\\email\\iterators.py',
   'PYMODULE'),
  ('email.generator',
   'C:\\Users\\janio\\AppData\\Local\\Programs\\Python\\Python38\\lib\\email\\generator.py',
   'PYMODULE'),
  ('email._encoded_words',
   'C:\\Users\\janio\\AppData\\Local\\Programs\\Python\\Python38\\lib\\email\\_encoded_words.py',
   'PYMODULE'),
  ('base64',
   'C:\\Users\\janio\\AppData\\Local\\Programs\\Python\\Python38\\lib\\base64.py',
   'PYMODULE'),
  ('getopt',
   'C:\\Users\\janio\\AppData\\Local\\Programs\\Python\\Python38\\lib\\getopt.py',
   'PYMODULE'),
  ('quopri',
   'C:\\Users\\janio\\AppData\\Local\\Programs\\Python\\Python38\\lib\\quopri.py',
   'PYMODULE'),
  ('uu',
   'C:\\Users\\janio\\AppData\\Local\\Programs\\Python\\Python38\\lib\\uu.py',
   'PYMODULE'),
  ('optparse',
   'C:\\Users\\janio\\AppData\\Local\\Programs\\Python\\Python38\\lib\\optparse.py',
   'PYMODULE'),
  ('email._header_value_parser',
   'C:\\Users\\janio\\AppData\\Local\\Programs\\Python\\Python38\\lib\\email\\_header_value_parser.py',
   'PYMODULE'),
  ('email.header',
   'C:\\Users\\janio\\AppData\\Local\\Programs\\Python\\Python38\\lib\\email\\header.py',
   'PYMODULE'),
  ('email.base64mime',
   'C:\\Users\\janio\\AppData\\Local\\Programs\\Python\\Python38\\lib\\email\\base64mime.py',
   'PYMODULE'),
  ('email.charset',
   'C:\\Users\\janio\\AppData\\Local\\Programs\\Python\\Python38\\lib\\email\\charset.py',
   'PYMODULE'),
  ('email.encoders',
   'C:\\Users\\janio\\AppData\\Local\\Programs\\Python\\Python38\\lib\\email\\encoders.py',
   'PYMODULE'),
  ('email.errors',
   'C:\\Users\\janio\\AppData\\Local\\Programs\\Python\\Python38\\lib\\email\\errors.py',
   'PYMODULE'),
  ('csv',
   'C:\\Users\\janio\\AppData\\Local\\Programs\\Python\\Python38\\lib\\csv.py',
   'PYMODULE'),
  ('posixpath',
   'C:\\Users\\janio\\AppData\\Local\\Programs\\Python\\Python38\\lib\\posixpath.py',
   'PYMODULE'),
  ('importlib.util',
   'C:\\Users\\janio\\AppData\\Local\\Programs\\Python\\Python38\\lib\\importlib\\util.py',
   'PYMODULE'),
  ('tarfile',
   'C:\\Users\\janio\\AppData\\Local\\Programs\\Python\\Python38\\lib\\tarfile.py',
   'PYMODULE'),
  ('gzip',
   'C:\\Users\\janio\\AppData\\Local\\Programs\\Python\\Python38\\lib\\gzip.py',
   'PYMODULE'),
  ('_compression',
   'C:\\Users\\janio\\AppData\\Local\\Programs\\Python\\Python38\\lib\\_compression.py',
   'PYMODULE'),
  ('lzma',
   'C:\\Users\\janio\\AppData\\Local\\Programs\\Python\\Python38\\lib\\lzma.py',
   'PYMODULE'),
  ('bz2',
   'C:\\Users\\janio\\AppData\\Local\\Programs\\Python\\Python38\\lib\\bz2.py',
   'PYMODULE'),
  ('fnmatch',
   'C:\\Users\\janio\\AppData\\Local\\Programs\\Python\\Python38\\lib\\fnmatch.py',
   'PYMODULE'),
  ('stat',
   'C:\\Users\\janio\\AppData\\Local\\Programs\\Python\\Python38\\lib\\stat.py',
   'PYMODULE'),
  ('token',
   'C:\\Users\\janio\\AppData\\Local\\Programs\\Python\\Python38\\lib\\token.py',
   'PYMODULE'),
  ('_py_abc',
   'C:\\Users\\janio\\AppData\\Local\\Programs\\Python\\Python38\\lib\\_py_abc.py',
   'PYMODULE'),
  ('typing',
   'C:\\Users\\janio\\AppData\\Local\\Programs\\Python\\Python38\\lib\\typing.py',
   'PYMODULE'),
  ('stringprep',
   'C:\\Users\\janio\\AppData\\Local\\Programs\\Python\\Python38\\lib\\stringprep.py',
   'PYMODULE'),
  ('tracemalloc',
   'C:\\Users\\janio\\AppData\\Local\\Programs\\Python\\Python38\\lib\\tracemalloc.py',
   'PYMODULE'),
  ('datetime',
   'C:\\Users\\janio\\AppData\\Local\\Programs\\Python\\Python38\\lib\\datetime.py',
   'PYMODULE'),
  ('os',
   'C:\\Users\\janio\\AppData\\Local\\Programs\\Python\\Python38\\lib\\os.py',
   'PYMODULE')],
 [('api-ms-win-crt-math-l1-1-0.dll',
   'C:\\Program '
   'Files\\Microsoft\\jdk-11.0.16.101-hotspot\\bin\\api-ms-win-crt-math-l1-1-0.dll',
   'BINARY'),
  ('VCRUNTIME140.dll',
   'C:\\Users\\janio\\AppData\\Local\\Programs\\Python\\Python38\\VCRUNTIME140.dll',
   'BINARY'),
  ('api-ms-win-crt-stdio-l1-1-0.dll',
   'C:\\Program '
   'Files\\Microsoft\\jdk-11.0.16.101-hotspot\\bin\\api-ms-win-crt-stdio-l1-1-0.dll',
   'BINARY'),
  ('api-ms-win-crt-heap-l1-1-0.dll',
   'C:\\Program '
   'Files\\Microsoft\\jdk-11.0.16.101-hotspot\\bin\\api-ms-win-crt-heap-l1-1-0.dll',
   'BINARY'),
  ('api-ms-win-crt-locale-l1-1-0.dll',
   'C:\\Program '
   'Files\\Microsoft\\jdk-11.0.16.101-hotspot\\bin\\api-ms-win-crt-locale-l1-1-0.dll',
   'BINARY'),
  ('api-ms-win-crt-runtime-l1-1-0.dll',
   'C:\\Program '
   'Files\\Microsoft\\jdk-11.0.16.101-hotspot\\bin\\api-ms-win-crt-runtime-l1-1-0.dll',
   'BINARY'),
  ('python38.dll',
   'C:\\Users\\janio\\AppData\\Local\\Programs\\Python\\Python38\\python38.dll',
   'BINARY'),
  ('ucrtbase.dll',
   'C:\\Program Files\\Microsoft\\jdk-11.0.16.101-hotspot\\bin\\ucrtbase.dll',
   'BINARY'),
  ('api-ms-win-crt-string-l1-1-0.dll',
   'C:\\Program '
   'Files\\Microsoft\\jdk-11.0.16.101-hotspot\\bin\\api-ms-win-crt-string-l1-1-0.dll',
   'BINARY'),
  ('api-ms-win-crt-convert-l1-1-0.dll',
   'C:\\Program '
   'Files\\Microsoft\\jdk-11.0.16.101-hotspot\\bin\\api-ms-win-crt-convert-l1-1-0.dll',
   'BINARY'),
  ('api-ms-win-crt-filesystem-l1-1-0.dll',
   'C:\\Program '
   'Files\\Microsoft\\jdk-11.0.16.101-hotspot\\bin\\api-ms-win-crt-filesystem-l1-1-0.dll',
   'BINARY'),
  ('api-ms-win-crt-environment-l1-1-0.dll',
   'C:\\Program '
   'Files\\Microsoft\\jdk-11.0.16.101-hotspot\\bin\\api-ms-win-crt-environment-l1-1-0.dll',
   'BINARY'),
  ('api-ms-win-crt-process-l1-1-0.dll',
   'C:\\Program '
   'Files\\Microsoft\\jdk-11.0.16.101-hotspot\\bin\\api-ms-win-crt-process-l1-1-0.dll',
   'BINARY'),
  ('api-ms-win-crt-time-l1-1-0.dll',
   'C:\\Program '
   'Files\\Microsoft\\jdk-11.0.16.101-hotspot\\bin\\api-ms-win-crt-time-l1-1-0.dll',
   'BINARY'),
  ('api-ms-win-crt-conio-l1-1-0.dll',
   'C:\\Program '
   'Files\\Microsoft\\jdk-11.0.16.101-hotspot\\bin\\api-ms-win-crt-conio-l1-1-0.dll',
   'BINARY'),
  ('api-ms-win-core-errorhandling-l1-1-0.dll',
   'C:\\Program '
   'Files\\Microsoft\\jdk-11.0.16.101-hotspot\\bin\\api-ms-win-core-errorhandling-l1-1-0.dll',
   'BINARY'),
  ('api-ms-win-core-processenvironment-l1-1-0.dll',
   'C:\\Program '
   'Files\\Microsoft\\jdk-11.0.16.101-hotspot\\bin\\api-ms-win-core-processenvironment-l1-1-0.dll',
   'BINARY'),
  ('api-ms-win-core-datetime-l1-1-0.dll',
   'C:\\Program '
   'Files\\Microsoft\\jdk-11.0.16.101-hotspot\\bin\\api-ms-win-core-datetime-l1-1-0.dll',
   'BINARY'),
  ('api-ms-win-core-timezone-l1-1-0.dll',
   'C:\\Program '
   'Files\\Microsoft\\jdk-11.0.16.101-hotspot\\bin\\api-ms-win-core-timezone-l1-1-0.dll',
   'BINARY'),
  ('api-ms-win-core-util-l1-1-0.dll',
   'C:\\Program '
   'Files\\Microsoft\\jdk-11.0.16.101-hotspot\\bin\\api-ms-win-core-util-l1-1-0.dll',
   'BINARY'),
  ('api-ms-win-core-interlocked-l1-1-0.dll',
   'C:\\Program '
   'Files\\Microsoft\\jdk-11.0.16.101-hotspot\\bin\\api-ms-win-core-interlocked-l1-1-0.dll',
   'BINARY'),
  ('api-ms-win-core-rtlsupport-l1-1-0.dll',
   'C:\\Program '
   'Files\\Microsoft\\jdk-11.0.16.101-hotspot\\bin\\api-ms-win-core-rtlsupport-l1-1-0.dll',
   'BINARY'),
  ('api-ms-win-core-sysinfo-l1-1-0.dll',
   'C:\\Program '
   'Files\\Microsoft\\jdk-11.0.16.101-hotspot\\bin\\api-ms-win-core-sysinfo-l1-1-0.dll',
   'BINARY'),
  ('api-ms-win-core-string-l1-1-0.dll',
   'C:\\Program '
   'Files\\Microsoft\\jdk-11.0.16.101-hotspot\\bin\\api-ms-win-core-string-l1-1-0.dll',
   'BINARY'),
  ('api-ms-win-core-synch-l1-1-0.dll',
   'C:\\Program '
   'Files\\Microsoft\\jdk-11.0.16.101-hotspot\\bin\\api-ms-win-core-synch-l1-1-0.dll',
   'BINARY'),
  ('api-ms-win-core-debug-l1-1-0.dll',
   'C:\\Program '
   'Files\\Microsoft\\jdk-11.0.16.101-hotspot\\bin\\api-ms-win-core-debug-l1-1-0.dll',
   'BINARY'),
  ('api-ms-win-core-namedpipe-l1-1-0.dll',
   'C:\\Program '
   'Files\\Microsoft\\jdk-11.0.16.101-hotspot\\bin\\api-ms-win-core-namedpipe-l1-1-0.dll',
   'BINARY'),
  ('api-ms-win-core-file-l2-1-0.dll',
   'C:\\Program '
   'Files\\Microsoft\\jdk-11.0.16.101-hotspot\\bin\\api-ms-win-core-file-l2-1-0.dll',
   'BINARY'),
  ('api-ms-win-core-memory-l1-1-0.dll',
   'C:\\Program '
   'Files\\Microsoft\\jdk-11.0.16.101-hotspot\\bin\\api-ms-win-core-memory-l1-1-0.dll',
   'BINARY'),
  ('api-ms-win-core-profile-l1-1-0.dll',
   'C:\\Program '
   'Files\\Microsoft\\jdk-11.0.16.101-hotspot\\bin\\api-ms-win-core-profile-l1-1-0.dll',
   'BINARY'),
  ('api-ms-win-core-file-l1-2-0.dll',
   'C:\\Program '
   'Files\\Microsoft\\jdk-11.0.16.101-hotspot\\bin\\api-ms-win-core-file-l1-2-0.dll',
   'BINARY'),
  ('api-ms-win-core-handle-l1-1-0.dll',
   'C:\\Program '
   'Files\\Microsoft\\jdk-11.0.16.101-hotspot\\bin\\api-ms-win-core-handle-l1-1-0.dll',
   'BINARY'),
  ('api-ms-win-core-processthreads-l1-1-0.dll',
   'C:\\Program '
   'Files\\Microsoft\\jdk-11.0.16.101-hotspot\\bin\\api-ms-win-core-processthreads-l1-1-0.dll',
   'BINARY'),
  ('api-ms-win-core-console-l1-1-0.dll',
   'C:\\Program '
   'Files\\Microsoft\\jdk-11.0.16.101-hotspot\\bin\\api-ms-win-core-console-l1-1-0.dll',
   'BINARY'),
  ('api-ms-win-core-heap-l1-1-0.dll',
   'C:\\Program '
   'Files\\Microsoft\\jdk-11.0.16.101-hotspot\\bin\\api-ms-win-core-heap-l1-1-0.dll',
   'BINARY'),
  ('api-ms-win-core-localization-l1-2-0.dll',
   'C:\\Program '
   'Files\\Microsoft\\jdk-11.0.16.101-hotspot\\bin\\api-ms-win-core-localization-l1-2-0.dll',
   'BINARY'),
  ('api-ms-win-core-processthreads-l1-1-1.dll',
   'C:\\Program '
   'Files\\Microsoft\\jdk-11.0.16.101-hotspot\\bin\\api-ms-win-core-processthreads-l1-1-1.dll',
   'BINARY'),
  ('api-ms-win-core-synch-l1-2-0.dll',
   'C:\\Program '
   'Files\\Microsoft\\jdk-11.0.16.101-hotspot\\bin\\api-ms-win-core-synch-l1-2-0.dll',
   'BINARY'),
  ('api-ms-win-core-file-l1-1-0.dll',
   'C:\\Program '
   'Files\\Microsoft\\jdk-11.0.16.101-hotspot\\bin\\api-ms-win-core-file-l1-1-0.dll',
   'BINARY'),
  ('api-ms-win-core-libraryloader-l1-1-0.dll',
   'C:\\Program '
   'Files\\Microsoft\\jdk-11.0.16.101-hotspot\\bin\\api-ms-win-core-libraryloader-l1-1-0.dll',
   'BINARY'),
  ('select',
   'C:\\Users\\janio\\AppData\\Local\\Programs\\Python\\Python38\\DLLs\\select.pyd',
   'EXTENSION'),
  ('unicodedata',
   'C:\\Users\\janio\\AppData\\Local\\Programs\\Python\\Python38\\DLLs\\unicodedata.pyd',
   'EXTENSION'),
  ('_socket',
   'C:\\Users\\janio\\AppData\\Local\\Programs\\Python\\Python38\\DLLs\\_socket.pyd',
   'EXTENSION'),
  ('_hashlib',
   'C:\\Users\\janio\\AppData\\Local\\Programs\\Python\\Python38\\DLLs\\_hashlib.pyd',
   'EXTENSION'),
  ('_lzma',
   'C:\\Users\\janio\\AppData\\Local\\Programs\\Python\\Python38\\DLLs\\_lzma.pyd',
   'EXTENSION'),
  ('_bz2',
   'C:\\Users\\janio\\AppData\\Local\\Programs\\Python\\Python38\\DLLs\\_bz2.pyd',
   'EXTENSION'),
  ('libcrypto-1_1.dll',
   'C:\\Users\\janio\\AppData\\Local\\Programs\\Python\\Python38\\DLLs\\libcrypto-1_1.dll',
   'BINARY'),
  ('api-ms-win-crt-utility-l1-1-0.dll',
   'C:\\Program '
   'Files\\Microsoft\\jdk-11.0.16.101-hotspot\\bin\\api-ms-win-crt-utility-l1-1-0.dll',
   'BINARY')],
 [],
 [],
 [('base_library.zip',
   'C:\\Users\\janio\\Desktop\\TimeSpentInSC\\build\\main\\base_library.zip',
   'DATA')],
 [])
